%YAML 1.1
%TAG !u! tag:unity3d.com,2011:
--- !u!114 &11400000
MonoBehaviour:
  m_ObjectHideFlags: 0
  m_CorrespondingSourceObject: {fileID: 0}
  m_PrefabInstance: {fileID: 0}
  m_PrefabAsset: {fileID: 0}
  m_GameObject: {fileID: 0}
  m_Enabled: 1
  m_EditorHideFlags: 0
  m_Script: {fileID: 11500000, guid: cb6384b523d205548863a249db8ee6fd, type: 3}
  m_Name: Saco de Moedas
  m_EditorClassIdentifier: 
  itemName: Saco de Moedas
  shopType: 1
  amount: 100
  price: 100
  icon: {fileID: 21300000, guid: ea56a98efb1607f4a8335de6c3778ca9, type: 3}
